…
First, we load the `tiicba` package and use the `traffic_proj`function to create a table of traffic flow projections using PAG Unit 5.3 link based growth projections

``` r
library(tiicba)

proj <- traffic_proj(base_yr = 2016,
                     base_aadt = 8000,
                     opening_yr = 2019,
                     pc_hgv = 0.05,
                     region = "Mid-East")

proj
```

    ## # A tibble: 76 x 4
    ##     year      lv       hv   total
    ##    <int>   <dbl>    <dbl>   <dbl>
    ##  1  2016 2774000 146000.0 2920000
    ##  2  2017 2812836 149460.2 2962296
    ##  3  2018 2852216 153002.4 3005218
    ##  4  2019 2892147 156628.6 3048775
    ##  5  2020 2932637 160340.7 3092977
    ##  6  2021 2973694 164140.7 3137834
    ##  7  2022 3015325 168030.9 3183356
    ##  8  2023 3057540 172013.2 3229553
    ##  9  2024 3100346 176089.9 3276435
    ## 10  2025 3143750 180263.2 3324014
    ## # ... with 66 more rows
…
